^F:\GAMEDEVLOP\WWW.CNZZ.CN\DEBUG\CELL.OBJ|F:\GAMEDEVLOP\WWW.CNZZ.CN\DEBUG\MAINFRM.OBJ|F:\GAMEDEVLOP\WWW.CNZZ.CN\DEBUG\RUSSIA.EXE.EMBED.MANIFEST.RES|F:\GAMEDEVLOP\WWW.CNZZ.CN\DEBUG\RUSSIA.OBJ|F:\GAMEDEVLOP\WWW.CNZZ.CN\DEBUG\RUSSIA.RES|F:\GAMEDEVLOP\WWW.CNZZ.CN\DEBUG\RUSSIADOC.OBJ|F:\GAMEDEVLOP\WWW.CNZZ.CN\DEBUG\RUSSIAVIEW.OBJ|F:\GAMEDEVLOP\WWW.CNZZ.CN\DEBUG\SETDLG.OBJ|F:\GAMEDEVLOP\WWW.CNZZ.CN\DEBUG\SQUARE.OBJ|F:\GAMEDEVLOP\WWW.CNZZ.CN\DEBUG\STDAFX.OBJ
C:\WINDOWS\GLOBALIZATION\SORTING\SORTDEFAULT.NLS
F:\GAMEDEVLOP\WWW.CNZZ.CN\DEBUG\RUSSIA.RES
F:\GAMEDEVLOP\WWW.CNZZ.CN\DEBUG\RUSSIA.EXE.EMBED.MANIFEST.RES
F:\GAMEDEVLOP\WWW.CNZZ.CN\DEBUG\CELL.OBJ
F:\GAMEDEVLOP\WWW.CNZZ.CN\DEBUG\MAINFRM.OBJ
F:\GAMEDEVLOP\WWW.CNZZ.CN\DEBUG\RUSSIA.OBJ
F:\GAMEDEVLOP\WWW.CNZZ.CN\DEBUG\RUSSIADOC.OBJ
F:\GAMEDEVLOP\WWW.CNZZ.CN\DEBUG\RUSSIAVIEW.OBJ
F:\GAMEDEVLOP\WWW.CNZZ.CN\DEBUG\SETDLG.OBJ
F:\GAMEDEVLOP\WWW.CNZZ.CN\DEBUG\SQUARE.OBJ
F:\GAMEDEVLOP\WWW.CNZZ.CN\DEBUG\STDAFX.OBJ
C:\WINDOWS\SYSTEM32\TZRES.DLL
F:\GAMEDEVLOP\WWW.CNZZ.CN\DEBUG\RUSSIA.ILK
F:\GAMEDEVLOP\WWW.CNZZ.CN\DEBUG\RUSSIA.EXE
C:\PROGRAM FILES (X86)\MICROSOFT VISUAL STUDIO 10.0\VC\ATLMFC\LIB\MFC100D.LIB
C:\PROGRAM FILES (X86)\MICROSOFT VISUAL STUDIO 10.0\VC\ATLMFC\LIB\MFCS100D.LIB
C:\PROGRAM FILES (X86)\MICROSOFT VISUAL STUDIO 10.0\VC\LIB\MSVCRTD.LIB
C:\PROGRAM FILES (X86)\MICROSOFT SDKS\WINDOWS\V7.0A\LIB\KERNEL32.LIB
C:\PROGRAM FILES (X86)\MICROSOFT SDKS\WINDOWS\V7.0A\LIB\USER32.LIB
C:\PROGRAM FILES (X86)\MICROSOFT SDKS\WINDOWS\V7.0A\LIB\GDI32.LIB
C:\PROGRAM FILES (X86)\MICROSOFT SDKS\WINDOWS\V7.0A\LIB\MSIMG32.LIB
C:\PROGRAM FILES (X86)\MICROSOFT SDKS\WINDOWS\V7.0A\LIB\COMDLG32.LIB
C:\PROGRAM FILES (X86)\MICROSOFT SDKS\WINDOWS\V7.0A\LIB\WINSPOOL.LIB
C:\PROGRAM FILES (X86)\MICROSOFT SDKS\WINDOWS\V7.0A\LIB\ADVAPI32.LIB
C:\PROGRAM FILES (X86)\MICROSOFT SDKS\WINDOWS\V7.0A\LIB\SHELL32.LIB
C:\PROGRAM FILES (X86)\MICROSOFT SDKS\WINDOWS\V7.0A\LIB\COMCTL32.LIB
C:\PROGRAM FILES (X86)\MICROSOFT SDKS\WINDOWS\V7.0A\LIB\SHLWAPI.LIB
C:\PROGRAM FILES (X86)\MICROSOFT SDKS\WINDOWS\V7.0A\LIB\UUID.LIB
C:\PROGRAM FILES (X86)\MICROSOFT VISUAL STUDIO 10.0\VC\ATLMFC\LIB\ATLSD.LIB
C:\PROGRAM FILES (X86)\MICROSOFT SDKS\WINDOWS\V7.0A\LIB\OLE32.LIB
C:\PROGRAM FILES (X86)\MICROSOFT SDKS\WINDOWS\V7.0A\LIB\OLEAUT32.LIB
C:\PROGRAM FILES (X86)\MICROSOFT SDKS\WINDOWS\V7.0A\LIB\OLEDLG.LIB
C:\PROGRAM FILES (X86)\MICROSOFT SDKS\WINDOWS\V7.0A\LIB\URLMON.LIB
C:\PROGRAM FILES (X86)\MICROSOFT VISUAL STUDIO 10.0\VC\LIB\OLDNAMES.LIB
C:\PROGRAM FILES (X86)\MICROSOFT VISUAL STUDIO 10.0\VC\LIB\MSVCPRTD.LIB
C:\PROGRAM FILES (X86)\MICROSOFT SDKS\WINDOWS\V7.0A\LIB\WININET.LIB
C:\PROGRAM FILES (X86)\MICROSOFT SDKS\WINDOWS\V7.0A\LIB\WS2_32.LIB
C:\PROGRAM FILES (X86)\MICROSOFT SDKS\WINDOWS\V7.0A\LIB\MSWSOCK.LIB
C:\WINDOWS\MICROSOFT.NET\FRAMEWORK\V4.0.30319\CVTRES.EXE
C:\WINDOWS\SYSTEM32\RSAENH.DLL
