^F:\GAMEDEVLOP\WWW.CNZZ.CN\RUSSIA.RC
/D _DEBUG /D _VC80_UPGRADE=0x0600 /D _AFXDLL /l"0x0804" /nologo /fo".\Debug\Russia.res" Russia.rc /D _DEBUG /D _VC80_UPGRADE=0x0600 /D _AFXDLL /l"0x0804" /nologo /fo".\Debug\Russia.res" F:\GAMEDEVLOP\WWW.CNZZ.CN\RUSSIA.RC
^F:\GAMEDEVLOP\WWW.CNZZ.CN\DEBUG\RUSSIA_MANIFEST.RC
/nologo /fo".\Debug\Russia.exe.embed.manifest.res" .\Debug\Russia_manifest.rc /nologo /fo".\Debug\Russia.exe.embed.manifest.res" F:\GAMEDEVLOP\WWW.CNZZ.CN\DEBUG\RUSSIA_MANIFEST.RC
